{
  "kind": "collectionType",
  "connection": "default",
  "collectionName": "emails",
  "info": {
    "name": "Email"
  },
  "options": {
    "increments": true,
    "timestamps": true
  },
  "attributes": {
    "text": {
      "type": "richtext"
    },
    "subject": {
      "type": "string"
    }
  }
}
