<?xml version="1.0" encoding="UTF-8" standalone="no"?>
<svg
   xmlns:dc="http://purl.org/dc/elements/1.1/"
   xmlns:cc="http://creativecommons.org/ns#"
   xmlns:rdf="http://www.w3.org/1999/02/22-rdf-syntax-ns#"
   xmlns:svg="http://www.w3.org/2000/svg"
   xmlns="http://www.w3.org/2000/svg"
   xmlns:sodipodi="http://sodipodi.sourceforge.net/DTD/sodipodi-0.dtd"
   xmlns:inkscape="http://www.inkscape.org/namespaces/inkscape"
   height="512px"
   style="enable-background:new 0 0 512 512;"
   version="1.1"
   viewBox="0 0 512 512"
   width="512px"
   xml:space="preserve"
   id="svg5156"
   sodipodi:docname="tw.svg"
   inkscape:version="0.92.5 (2060ec1f9f, 2020-04-08)"><metadata
     id="metadata5162"><rdf:RDF><cc:Work
         rdf:about=""><dc:format>image/svg+xml</dc:format><dc:type
           rdf:resource="http://purl.org/dc/dcmitype/StillImage" /><dc:title></dc:title></cc:Work></rdf:RDF></metadata><defs
     id="defs5160" /><sodipodi:namedview
     pagecolor="#ffffff"
     bordercolor="#666666"
     borderopacity="1"
     objecttolerance="10"
     gridtolerance="10"
     guidetolerance="10"
     inkscape:pageopacity="0"
     inkscape:pageshadow="2"
     inkscape:window-width="1920"
     inkscape:window-height="1001"
     id="namedview5158"
     showgrid="false"
     inkscape:pagecheckerboard="true"
     inkscape:zoom="1.3037281"
     inkscape:cx="141.47995"
     inkscape:cy="234.38516"
     inkscape:window-x="-9"
     inkscape:window-y="-9"
     inkscape:window-maximized="1"
     inkscape:current-layer="comp_x5F_345-twitter" /><g
     id="comp_x5F_345-twitter"
     transform="translate(1.2907203,-27.767066)"><g
       id="g5152"><path
         d="m 446.21442,183.49969 c 0.30485,4.26788 0.30485,8.53367 0.30485,12.79842 0,130.11812 -99.03505,280.0399 -280.0399,280.0399 -55.76431,0 -107.566627,-16.14862 -151.141172,-44.1832 7.921886,0.91246 15.539967,1.21731 23.767744,1.21731 46.01229,0 88.369528,-15.53893 122.193088,-42.04822 -43.27074,-0.91559 -79.533088,-29.25501 -92.025613,-68.25996 6.094882,0.91349 12.188721,1.52319 18.588451,1.52319 8.83643,0 17.674942,-1.21939 25.900632,-3.3502 -45.097737,-9.14337 -78.923393,-48.75697 -78.923393,-96.59835 v -1.21835 c 13.102222,7.31323 28.340471,11.88387 44.48909,12.49357 -26.510336,-17.67495 -43.879393,-47.84242 -43.879393,-81.97084 0,-18.28569 4.874444,-35.04297 13.407071,-49.67048 48.452122,59.72526 121.280635,98.73021 202.944535,102.996 -1.52215,-7.31324 -2.43774,-14.92922 -2.43774,-22.54939 0,-54.24007 43.88148,-98.42536 98.42536,-98.42536 28.33942,0 53.93522,11.883871 71.91501,31.08098 22.24455,-4.26475 43.57245,-12.49357 62.4668,-23.767748 -7.31324,22.855288 -22.85424,42.051348 -43.26969,54.240068 19.80784,-2.13185 39.00495,-7.61912 56.67781,-15.23616 -13.40707,19.50196 -30.16748,36.87101 -49.36354,50.88882 z"
         style="fill:none;stroke:#ffffff;stroke-width:20.88003349;stroke-linecap:round;stroke-linejoin:round;stroke-miterlimit:10;stroke-opacity:1"
         id="path5150"
         inkscape:connector-curvature="0" /></g></g><g
     id="Layer_1" /></svg>