{
  "kind": "collectionType",
  "connection": "default",
  "collectionName": "news",
  "info": {
    "name": "new"
  },
  "options": {
    "increments": true,
    "timestamps": true
  },
  "attributes": {
    "title": {
      "type": "string",
      "required": true
    },
    "description": {
      "type": "richtext",
      "required": true
    },
    "pic": {
      "model": "file",
      "via": "related",
      "plugin": "upload",
      "required": true
    }
  }
}
